module gitlab.com/jkmn/errors

go 1.17

require github.com/stretchr/testify v1.7.0

require (
	github.com/davecgh/go-spew v1.1.1 // indirect
	github.com/kr/pretty v0.3.0 // indirect
	github.com/pmezard/go-difflib v1.0.0 // indirect
	github.com/rogpeppe/go-internal v1.8.0 // indirect
	gopkg.in/check.v1 v1.0.0-20201130134442-10cb98267c6c // indirect
	gopkg.in/yaml.v3 v3.0.0-20210107192922-496545a6307b // indirect
)
